module diminutive-gitops-controller

go 1.23.0

toolchain go1.23.2

require (
	github.com/go-git/go-billy/v5 v5.5.0
	github.com/go-git/go-git/v5 v5.12.0
	github.com/go-yaml/yaml v2.1.0+incompatible
	golang.org/x/crypto v0.27.0
	gopkg.in/yaml.v2 v2.4.0
	k8s.io/api v0.31.1
	k8s.io/apimachinery v0.31.1
	k8s.io/client-go v0.31.1
)

require (
	dario.cat/mergo v1.0.1 // indirect
	github.com/Microsoft/go-winio v0.6.2 // indirect
	github.com/ProtonMail/go-crypto v1.0.0 // indirect
	github.com/cloudflare/circl v1.4.0 // indirect
	github.com/cyphar/filepath-securejoin v0.3.3 // indirect
	github.com/davecgh/go-spew v1.1.2-0.20180830191138-d8f796af33cc // indirect
	github.com/emicklei/go-restful/v3 v3.12.1 // indirect
	github.com/emirpasic/gods v1.18.1 // indirect
	github.com/fxamacker/cbor/v2 v2.7.0 // indirect
	github.com/go-git/gcfg v1.5.1-0.20230307220236-3a3c6141e376 // indirect
	github.com/go-logr/logr v1.4.2 // indirect
	github.com/go-openapi/jsonpointer v0.21.0 // indirect
	github.com/go-openapi/jsonreference v0.21.0 // indirect
	github.com/go-openapi/swag v0.23.0 // indirect
	github.com/gogo/protobuf v1.3.2 // indirect
	github.com/golang/groupcache v0.0.0-20210331224755-41bb18bfe9da // indirect
	github.com/golang/protobuf v1.5.4 // indirect
	github.com/google/gnostic-models v0.6.8 // indirect
	github.com/google/go-cmp v0.6.0 // indirect
	github.com/google/gofuzz v1.2.0 // indirect
	github.com/google/uuid v1.6.0 // indirect
	github.com/imdario/mergo v0.3.16 // indirect
	github.com/jbenet/go-context v0.0.0-20150711004518-d14ea06fba99 // indirect
	github.com/josharian/intern v1.0.0 // indirect
	github.com/json-iterator/go v1.1.12 // indirect
	github.com/kevinburke/ssh_config v1.2.0 // indirect
	github.com/mailru/easyjson v0.7.7 // indirect
	github.com/modern-go/concurrent v0.0.0-20180306012644-bacd9c7ef1dd // indirect
	github.com/modern-go/reflect2 v1.0.2 // indirect
	github.com/munnerz/goautoneg v0.0.0-20191010083416-a7dc8b61c822 // indirect
	github.com/pjbgf/sha1cd v0.3.0 // indirect
	github.com/sergi/go-diff v1.3.2-0.20230802210424-5b0b94c5c0d3 // indirect
	github.com/skeema/knownhosts v1.3.0 // indirect
	github.com/spf13/pflag v1.0.5 // indirect
	github.com/x448/float16 v0.8.4 // indirect
	github.com/xanzy/ssh-agent v0.3.3 // indirect
	golang.org/x/net v0.29.0 // indirect
	golang.org/x/oauth2 v0.23.0 // indirect
	golang.org/x/sys v0.25.0 // indirect
	golang.org/x/term v0.24.0 // indirect
	golang.org/x/text v0.18.0 // indirect
	golang.org/x/time v0.6.0 // indirect
	golang.org/x/tools v0.25.0 // indirect
	google.golang.org/protobuf v1.34.2 // indirect
	gopkg.in/inf.v0 v0.9.1 // indirect
	gopkg.in/warnings.v0 v0.1.2 // indirect
	gopkg.in/yaml.v3 v3.0.1 // indirect
	k8s.io/klog/v2 v2.130.1 // indirect
	k8s.io/kube-openapi v0.0.0-20240903163716-9e1beecbcb38 // indirect
	k8s.io/utils v0.0.0-20240921022957-49e7df575cb6 // indirect
	sigs.k8s.io/json v0.0.0-20221116044647-bc3834ca7abd // indirect
	sigs.k8s.io/structured-merge-diff/v4 v4.4.1 // indirect
	sigs.k8s.io/yaml v1.4.0 // indirect
)
